{
    "heading1": "# Vulnerability Statistic",
    "heading2": "# Vulnerability Table",
    "shield_version": ["https://img.shields.io/badge/version-", "-blue?style=for-the-badge"],
    "shield_start_time": ["https://img.shields.io/badge/start-", "-blue?style=for-the-badge"],
    "shield_end_time": ["https://img.shields.io/badge/end-", "-blue?style=for-the-badge"],
    "shield_status": ["https://img.shields.io/badge/status-", "?style=for-the-badge"],
    "shield_scanner": ["https://img.shields.io/badge/scanner-", "-blue?style=for-the-badge"],
    "shield_analyzer": ["https://img.shields.io/badge/analyzer-", "-blue?style=for-the-badge"]
}